ONT_R10_ZYMO_rRNA.utf8.md
…
Detect contamination sequences. Compare error rates for the SSU part of the operon as calculated based on the Zymo references and the Silva database for the flagged UMI sequences.

cont <- outlier %>%
  select(umi, ref_ssu_error, silva_ssu_error) %>%
  filter(silva_ssu_error < ref_ssu_error &  0.1 < ref_ssu_error - silva_ssu_error) %>%
  arrange(desc(ref_ssu_error - silva_ssu_error)) %>%
  mutate(flag = "cont")

cont %>%
  select(umi, ref_ssu_error, silva_ssu_error)

## # A tibble: 21 x 3
##    umi           ref_ssu_error silva_ssu_error
##    <chr>                 <dbl>           <dbl>
##  1 umi154222bins          25.2           0.221
##  2 umi103508bins          25.2           0.294
##  3 umi164661bins          19.4           0    
##  4 umi45744bins           19.3           0.369
##  5 umi5718bins            19.0           0.222
##  6 umi235356bins          19.1           0.369
##  7 umi7739bins            19.1           0.369
##  8 umi173392bins          18.3           0    
##  9 umi175760bins          18.3           0    
## 10 umi17619bins           18.1           0    
## # ... with 11 more rows
…
